<svg id="Medal" xmlns="http://www.w3.org/2000/svg" width="60" height="60" viewBox="0 0 60 60">
  <rect id="Rectangle_3696" data-name="Rectangle 3696" width="60" height="60" fill="none"/>
  <path id="medal-2" data-name="medal" d="M27.884,22.6l-1.657-3.287a2.42,2.42,0,0,0-4.134.007L20.439,22.6l-3.7.529a2.28,2.28,0,0,0-1.864,1.535,2.206,2.206,0,0,0,.585,2.312L18.14,29.53l-.634,3.6a2.3,2.3,0,0,0,3.345,2.378l3.311-1.7,3.309,1.7a2.3,2.3,0,0,0,3.348-2.376l-.634-3.6,2.677-2.552a2.207,2.207,0,0,0,.585-2.312,2.281,2.281,0,0,0-1.862-1.535l-3.7-.529ZM27.3,28.614l.742,4.222-3.88-1.994-3.888,2.044.75-4.273-3.138-2.993L22.222,25l1.94-3.847L26.1,25l4.336.618ZM46.979,0H33.736a2.7,2.7,0,0,0-2.3,1.275L24.162,13.131,16.89,1.275A2.7,2.7,0,0,0,14.588,0H1.345a1.312,1.312,0,0,0-1.1,2.067l12.091,16.9A14.147,14.147,0,0,0,9.4,27.575,14.624,14.624,0,0,0,24.162,42.02,14.624,14.624,0,0,0,38.927,27.575a14.147,14.147,0,0,0-2.94-8.612l12.091-16.9A1.312,1.312,0,0,0,46.979,0ZM3.924,2.626H14.588l6.622,10.8a14.841,14.841,0,0,0-7.029,3.54ZM36.243,27.575A11.951,11.951,0,0,1,24.162,39.394a11.821,11.821,0,1,1,0-23.636A11.951,11.951,0,0,1,36.243,27.575Zm-2.1-10.613a14.841,14.841,0,0,0-7.029-3.54l6.622-10.8H44.4Z" transform="translate(5.838 9.99)" fill="#ef8316"/>
</svg>
