<svg id="garage" xmlns="http://www.w3.org/2000/svg" width="152" height="152" viewBox="0 0 152 152">
  <g id="Group_10498" data-name="Group 10498" transform="translate(4.222 4.222)">
    <path id="Path_6026" data-name="Path 6026" d="M133.768,175.006H139l-2.595-7.394Z" transform="translate(-35.181 -44.085)" fill="#ef8316" fill-rule="evenodd"/>
    <path id="Path_6027" data-name="Path 6027" d="M121.35,169.094a2.393,2.393,0,0,0-.766-1.907,2.975,2.975,0,0,0-2.027-.669h-3.736v5.134h3.736a2.994,2.994,0,0,0,2.036-.659,2.384,2.384,0,0,0,.757-1.9" transform="translate(-30.198 -43.793)" fill="#ef8316" fill-rule="evenodd"/>
    <path id="Path_6028" data-name="Path 6028" d="M127.37,151.79H16.185a16.185,16.185,0,0,0,0,32.37H127.37a16.185,16.185,0,0,0,0-32.37m-93.187,8.393h2.582a38.819,38.819,0,0,1,4.171.155,6.891,6.891,0,0,1,2,.563,5.816,5.816,0,0,1,2.579,2.485,7.8,7.8,0,0,1,.73,2.137H42.1a2.57,2.57,0,0,0-.677-1.117,4.115,4.115,0,0,0-3-.9h-.733l-.315,2.015H33.362ZM22.7,165.338a8.061,8.061,0,0,1,1.61-2.748,6.846,6.846,0,0,1,3.149-1.955,16.411,16.411,0,0,1,5.62-.457l-.539,3.382h-.478q-3.294-.307-4.53,1.136a6.734,6.734,0,0,0-.57.835H22.621c.028-.069.056-.134.08-.194m-1.86,4.339H16.465l-.947,5.847H11.478l1.43-8.919H21.3Zm-3.479-6.015-.306,1.861H13.03l.846-5.34h8.729l-.561,3.479ZM30.7,175.51H28.869c-2.224-.122-3.815-.684-4.734-1.645a7.15,7.15,0,0,1-1.966-5.25,8.81,8.81,0,0,1,.223-2.008h4.2a5.485,5.485,0,0,0-.285,1.73,3.961,3.961,0,0,0,1.022,2.946c.488.479,1.821.686,3.961.552Zm14.89-4.2a7.406,7.406,0,0,1-2.407,2.783,7.185,7.185,0,0,1-2.683,1.1,27.8,27.8,0,0,1-5.2.328h-3.5l1.4-8.919h4.04l-.867,5.573c.278.022.481.022.635.022h.366a4.962,4.962,0,0,0,3.679-1.195,4.749,4.749,0,0,0,1.277-3.553,7.16,7.16,0,0,0-.052-.848h4.046c.022.309.052.587.052.921a8.3,8.3,0,0,1-.794,3.785m19.873-1.1a6.6,6.6,0,0,1-.266,2.045,4.412,4.412,0,0,1-.934,1.554,4.843,4.843,0,0,1-3.738,1.613,4.745,4.745,0,0,1-3.5-1.376,4.058,4.058,0,0,1-1.159-2.026,29.229,29.229,0,0,1,0-7.434,4.058,4.058,0,0,1,1.159-2.026,5.152,5.152,0,0,1,6.776-.206,4.92,4.92,0,0,1,1.622,3.018H63.933a3.678,3.678,0,0,0-1.191-2.094,3.3,3.3,0,0,0-2.212-.757,3.2,3.2,0,0,0-2.418.982,3.025,3.025,0,0,0-.806,1.583,29.317,29.317,0,0,0,0,6.431,3.019,3.019,0,0,0,.806,1.584,3.2,3.2,0,0,0,2.418.983,3.252,3.252,0,0,0,2.655-1.2,3.932,3.932,0,0,0,.786-2.537v-1.081H60.53v-1.279h4.938Zm12.626,5.094-1.12-3.166H70.856l-1.121,3.166H68.141l5.155-14h1.257l5.135,14Zm13.079,0-3.187-6.215H84.623v6.215h-1.5v-14H88.5a4.269,4.269,0,0,1,3,1.053,3.656,3.656,0,0,1,1.15,2.842,3.716,3.716,0,0,1-.825,2.478,3.845,3.845,0,0,1-2.221,1.278l3.322,6.353Zm14.2,0-1.121-3.166H98.133l-1.121,3.166H95.419l5.155-14h1.257l5.135,14Zm14.143-5.094a6.6,6.6,0,0,1-.267,2.045,4.4,4.4,0,0,1-.934,1.554,4.843,4.843,0,0,1-3.737,1.613,4.744,4.744,0,0,1-3.5-1.376,4.053,4.053,0,0,1-1.159-2.026,29.229,29.229,0,0,1,0-7.434,4.053,4.053,0,0,1,1.159-2.026,5.151,5.151,0,0,1,6.775-.206,4.916,4.916,0,0,1,1.622,3.018H117.98a3.686,3.686,0,0,0-1.191-2.094,3.3,3.3,0,0,0-2.212-.757,3.206,3.206,0,0,0-2.419.982,3.025,3.025,0,0,0-.806,1.583,29.44,29.44,0,0,0,0,6.431,3.019,3.019,0,0,0,.806,1.584,3.2,3.2,0,0,0,2.419.983,3.254,3.254,0,0,0,2.655-1.2,3.936,3.936,0,0,0,.786-2.537v-1.081h-3.442v-1.279h4.938Zm13.351-7.572h-7.2v4.937H131.8v1.336h-6.136v5.054h7.2v1.338h-8.694v-14h8.694Z" transform="translate(0 -39.919)" fill="#ef8316" fill-rule="evenodd"/>
    <path id="Path_6029" data-name="Path 6029" d="M96.757,175.006h5.23l-2.595-7.394Z" transform="translate(-25.448 -44.085)" fill="#ef8316" fill-rule="evenodd"/>
    <path id="Path_6030" data-name="Path 6030" d="M117.422,29.823C114.2,19.774,107.246,11.844,97.989,5.567A68.351,68.351,0,0,0,87.463.2a2.32,2.32,0,0,0-.47-.15,2.147,2.147,0,0,0-2.525,2.86c3.591,7.782,6.874,15.1,10.463,22.291,1.59,3.186,1.275,5.786-.993,8.431-6.737,7.851-15.863,10.445-26.6,9.635-3.14-.237-5.223-1.441-6.519-4.087-3.852-7.86-7.881-15.652-11.832-23.474C47,11.779,44.49,12.863,41.3,20.626a18.213,18.213,0,0,0-1,3.123c-1.55,7.325-.6,14.663.684,22A40.291,40.291,0,0,0,52.329,67.4c1.86,1.9,3.541,3.948,5.221,5.983A20.915,20.915,0,0,1,62.628,87.5c-.036,2.4-.08,12.8-.13,17.38h8.78V81.287L65.13,70.172a3.045,3.045,0,1,1,2.025-1.12L73.592,80.69v24.189h3.3V78.723L73.586,73V64.073a3.045,3.045,0,1,1,2.314,0v8.307L79.206,78.1v26.777h3.342v-29.2l-2.327-4.128,2.327-7.663V56.246a3.049,3.049,0,1,1,2.3,0L84.813,64.4l-2.089,6.882,2.138,3.793v29.8h2.875V69.129L91.7,63.3V51.909a3.045,3.045,0,1,1,2.314,0v12.1l-3.959,5.827v35.038h2.775V73.213l7.382-11.9a3.045,3.045,0,1,1,1.966,1.22L95.141,73.872v31.007h7.591c.026-3.915.048-14.158.065-17.054a42.865,42.865,0,0,1,8.632-26.409c7.116-9.553,9.61-20.309,5.993-31.593" transform="translate(-10.387 0)" fill="#ef8316"/>
  </g>
  <rect id="Rectangle_3949" data-name="Rectangle 3949" width="152" height="152" fill="none"/>
</svg>
