<svg xmlns="http://www.w3.org/2000/svg" width="10.922" height="20.28" viewBox="0 0 10.922 20.28">
  <path id="Tvar_6" data-name="Tvar 6" d="M248.165,371.27l-8.92-9.117a.989.989,0,0,0-1.418,0,1.038,1.038,0,0,0,0,1.447l8.213,8.394-8.212,8.394a1.039,1.039,0,0,0,0,1.447.989.989,0,0,0,1.418,0l8.92-9.117a1.049,1.049,0,0,0,0-1.447Zm0,0" transform="translate(-237.533 -361.853)" fill="#a2a1b8"/>
</svg>
