<svg xmlns="http://www.w3.org/2000/svg" width="35" height="35" viewBox="0 0 35 35">
    <defs>
        <style>.a{fill:#a4a4a5;}.b{fill:none;stroke:#fff;stroke-width:3px;}</style>
    </defs>
    <g transform="translate(-49 -7852)">
        <rect class="a" width="35" height="35" rx="3" transform="translate(49 7852)"/>
        <path class="b" d="M-742.987,7858.678l6.5,6.5,13.5-13.5" transform="translate(799 11)"/>
    </g>
</svg>
