<svg xmlns="http://www.w3.org/2000/svg" width="51" height="51" viewBox="0 0 51 51">
    <defs>
        <style>.a{fill:#fff;opacity:0.95;}.b{fill:none;}.c{fill-rule:evenodd;}.d{filter:url(#a);}
        </style>
        <filter id="a" x="0" y="0" width="51" height="51" filterUnits="userSpaceOnUse">
            <feOffset dy="2"/>
            <feGaussianBlur stdDeviation="2.5" result="b"/>
            <feFlood flood-opacity="0.361"/>
            <feComposite operator="in" in2="b"/>
            <feComposite in="SourceGraphic"/>
        </filter>
    </defs>
    <g transform="translate(-1258.5 -86.5)">
        <g class="d" transform="matrix(1, 0, 0, 1, 1258.5, 86.5)">
            <circle class="a" cx="18" cy="18" r="18" transform="translate(43.5 41.5) rotate(180)"/>
        </g>
        <g transform="translate(1241 -236)">
            <rect class="b" width="24" height="24" transform="translate(31 334)"/>
            <g transform="translate(1.481 317.531)">
                <path class="c"
                      d="M51.123,35.445,46.337,30.66a7.771,7.771,0,0,0,1.137-4.069,8.259,8.259,0,0,0-8.081-8.081,7.836,7.836,0,0,0-7.833,7.833,8.253,8.253,0,0,0,8.081,8.081,7.734,7.734,0,0,0,3.946-1.071l4.81,4.819a1.208,1.208,0,0,0,1.705,0L51.3,36.978c.47-.47.3-1.063-.173-1.532Zm-17.158-9.1a5.428,5.428,0,0,1,5.428-5.428,5.844,5.844,0,0,1,5.667,5.667,5.428,5.428,0,0,1-5.428,5.428,5.85,5.85,0,0,1-5.667-5.667Z"
                      transform="translate(0)"/>
            </g>
        </g>
    </g>
</svg>
