<svg xmlns="http://www.w3.org/2000/svg" xmlns:xlink="http://www.w3.org/1999/xlink" width="167"
     height="167" viewBox="0 0 167 167">
    <defs>
        <style>.a{fill:#ef8316;}.b{fill:#fff;}.c{filter:url(#a);}</style>
        <filter id="a" x="0" y="0" width="167" height="167" filterUnits="userSpaceOnUse">
            <feOffset dx="5.164" dy="9.712" input="SourceAlpha"/>
            <feGaussianBlur stdDeviation="14.5" result="b"/>
            <feFlood flood-opacity="0.439"/>
            <feComposite operator="in" in2="b"/>
            <feComposite in="SourceGraphic"/>
        </filter>
    </defs>
    <g transform="translate(-298.664 -1184.212)">
        <g class="c" transform="matrix(1, 0, 0, 1, 298.66, 1184.21)">
            <circle class="a" cx="40" cy="40" r="40" transform="translate(38.34 33.79)"/>
        </g>
        <path class="b"
              d="M393.938,1255.349H379.651v-14.287a2.735,2.735,0,0,0-5.3,0v14.287H360.062a2.735,2.735,0,0,0,0,5.3h14.287v14.287a2.735,2.735,0,0,0,5.3,0v-14.287h14.287a2.735,2.735,0,0,0,0-5.3Zm0,0"/>
    </g>
</svg>
