<svg xmlns="http://www.w3.org/2000/svg" width="29.998" height="29.998" viewBox="0 0 29.998 29.998">
  <path id="Tvar_7" data-name="Tvar 7" d="M700.562,197l10.7-10.695a2.521,2.521,0,0,0-3.565-3.565l-10.7,10.7-10.7-10.7a2.521,2.521,0,1,0-3.565,3.565L693.432,197l-10.695,10.7a2.521,2.521,0,1,0,3.565,3.565l10.7-10.7,10.7,10.7a2.521,2.521,0,1,0,3.565-3.565Zm0,0" transform="translate(-681.998 -181.998)" fill="#fff"/>
</svg>
